Scrambling the content of several variables in a data frame — scramble_variables • vazul
…
# Example with the 'williams' dataset
data(williams)
williams |> scramble_variables(c("ecology", "age"))
#> # A tibble: 112 × 25
#>    subject   SexUnres_1 SexUnres_2 SexUnres_3 SexUnres_4_r SexUnres_5_r Impuls_1
#>    <chr>          <dbl>      <dbl>      <dbl>        <dbl>        <dbl>    <dbl>
#>  1 A30MP4LX…          5          3          2            3            2        3
#>  2 A16X5FB3…          7          7          7            4            2        6
#>  3 A1E9D1OT…          2          4          6            3            3        3
#>  4 A16FPOYD…          5          4          5            3            3        4
#>  5 A11NOTVH…          5          5          6            3            3        5
#>  6 A3TDR6MX…          5          6          6            3            2        5
#>  7 A3OD4F0S…          5          6          5            3            4        5
#>  8 A123PBQD…          4          6          5            2            3        6
#>  9 A25NGIY5…          6          5          6            3            2        6
#> 10 A11WCFPJ…          4          4          4            1            1        1
#> # ℹ 102 more rows
#> # ℹ 18 more variables: Impuls_2_r <dbl>, Impul_3_r <dbl>, Opport_1 <dbl>,
#> #   Opport_2 <dbl>, Opport_3 <dbl>, Opport_4 <dbl>, Opport_5 <dbl>,
#> #   Opport_6_r <dbl>, InvEdu_1_r <dbl>, InvEdu_2_r <dbl>, InvChild_1 <dbl>,
#> #   InvChild_2_r <dbl>, age <dbl>, gender <dbl>, ecology <chr>,
#> #   duration_in_seconds <dbl>, attention_1 <dbl>, attention_2 <dbl>
williams |> scramble_variables(1:5)
#> # A tibble: 112 × 25
#>    subject   SexUnres_1 SexUnres_2 SexUnres_3 SexUnres_4_r SexUnres_5_r Impuls_1
#>    <chr>          <dbl>      <dbl>      <dbl>        <dbl>        <dbl>    <dbl>
#>  1 AABRVOZP…          3          5          4            2            2        3
#>  2 A16X5FB3…          3          7          4            3            2        6
#>  3 A36FQULQ…          6          4          4            2            3        3
#>  4 A2P4XT8Q…          6          4          5            6            3        4
#>  5 AGC7U237…          5          4          2            6            3        5
#>  6 A26N0W3Q…          4          4          2            4            2        5
#>  7 AQ5CSVCN…          5          4          4            3            4        5
#>  8 A3GFOV6P…          4          6          7            2            3        6
#>  9 A2TXK35P…          3          5          6            4            2        6
#> 10 A3J5PLM6…          5          5          4            3            1        1
#> # ℹ 102 more rows
#> # ℹ 18 more variables: Impuls_2_r <dbl>, Impul_3_r <dbl>, Opport_1 <dbl>,
#> #   Opport_2 <dbl>, Opport_3 <dbl>, Opport_4 <dbl>, Opport_5 <dbl>,
#> #   Opport_6_r <dbl>, InvEdu_1_r <dbl>, InvEdu_2_r <dbl>, InvChild_1 <dbl>,
#> #   InvChild_2_r <dbl>, age <dbl>, gender <dbl>, ecology <chr>,
#> #   duration_in_seconds <dbl>, attention_1 <dbl>, attention_2 <dbl>
williams |> scramble_variables(c("ecology", "age"), .groups = "gender")
#> # A tibble: 112 × 25
#>    subject   SexUnres_1 SexUnres_2 SexUnres_3 SexUnres_4_r SexUnres_5_r Impuls_1
#>    <chr>          <dbl>      <dbl>      <dbl>        <dbl>        <dbl>    <dbl>
#>  1 A30MP4LX…          5          3          2            3            2        3
#>  2 A16X5FB3…          7          7          7            4            2        6
#>  3 A1E9D1OT…          2          4          6            3            3        3
#>  4 A16FPOYD…          5          4          5            3            3        4
#>  5 A11NOTVH…          5          5          6            3            3        5
#>  6 A3TDR6MX…          5          6          6            3            2        5
#>  7 A3OD4F0S…          5          6          5            3            4        5
#>  8 A123PBQD…          4          6          5            2            3        6
#>  9 A25NGIY5…          6          5          6            3            2        6
#> 10 A11WCFPJ…          4          4          4            1            1        1
#> # ℹ 102 more rows
#> # ℹ 18 more variables: Impuls_2_r <dbl>, Impul_3_r <dbl>, Opport_1 <dbl>,
#> #   Opport_2 <dbl>, Opport_3 <dbl>, Opport_4 <dbl>, Opport_5 <dbl>,
#> #   Opport_6_r <dbl>, InvEdu_1_r <dbl>, InvEdu_2_r <dbl>, InvChild_1 <dbl>,
#> #   InvChild_2_r <dbl>, age <dbl>, gender <dbl>, ecology <chr>,
#> #   duration_in_seconds <dbl>, attention_1 <dbl>, attention_2 <dbl>
williams |> scramble_variables(c(1, 2), .groups = 3)
#> # A tibble: 112 × 25
#>    subject   SexUnres_1 SexUnres_2 SexUnres_3 SexUnres_4_r SexUnres_5_r Impuls_1
#>    <chr>          <dbl>      <dbl>      <dbl>        <dbl>        <dbl>    <dbl>
#>  1 A1LEB8GU…          6          3          2            3            2        3
#>  2 A1K6ZE1U…          7          7          7            4            2        6
#>  3 A2H95JVP…          4          4          6            3            3        3
#>  4 A2RBF3II…          5          4          5            3            3        4
#>  5 A9ZBEA4T…          5          5          6            3            3        5
#>  6 A5NE8TWS…          5          6          6            3            2        5
#>  7 A3TDR6MX…          5          6          5            3            4        5
#>  8 A2EELTS0…          5          6          5            2            3        6
#>  9 A2P4XT8Q…          5          5          6            3            2        6
#> 10 A2TXK35P…          3          4          4            1            1        1
#> # ℹ 102 more rows
#> # ℹ 18 more variables: Impuls_2_r <dbl>, Impul_3_r <dbl>, Opport_1 <dbl>,
#> #   Opport_2 <dbl>, Opport_3 <dbl>, Opport_4 <dbl>, Opport_5 <dbl>,
#> #   Opport_6_r <dbl>, InvEdu_1_r <dbl>, InvEdu_2_r <dbl>, InvChild_1 <dbl>,
#> #   InvChild_2_r <dbl>, age <dbl>, gender <dbl>, ecology <chr>,
#> #   duration_in_seconds <dbl>, attention_1 <dbl>, attention_2 <dbl>
williams |> scramble_variables(c("ecology", "age"), together = TRUE)
#> # A tibble: 112 × 25
#>    subject   SexUnres_1 SexUnres_2 SexUnres_3 SexUnres_4_r SexUnres_5_r Impuls_1
#>    <chr>          <dbl>      <dbl>      <dbl>        <dbl>        <dbl>    <dbl>
#>  1 A30MP4LX…          5          3          2            3            2        3
#>  2 A16X5FB3…          7          7          7            4            2        6
#>  3 A1E9D1OT…          2          4          6            3            3        3
#>  4 A16FPOYD…          5          4          5            3            3        4
#>  5 A11NOTVH…          5          5          6            3            3        5
#>  6 A3TDR6MX…          5          6          6            3            2        5
#>  7 A3OD4F0S…          5          6          5            3            4        5
#>  8 A123PBQD…          4          6          5            2            3        6
#>  9 A25NGIY5…          6          5          6            3            2        6
#> 10 A11WCFPJ…          4          4          4            1            1        1
#> # ℹ 102 more rows
#> # ℹ 18 more variables: Impuls_2_r <dbl>, Impul_3_r <dbl>, Opport_1 <dbl>,
#> #   Opport_2 <dbl>, Opport_3 <dbl>, Opport_4 <dbl>, Opport_5 <dbl>,
#> #   Opport_6_r <dbl>, InvEdu_1_r <dbl>, InvEdu_2_r <dbl>, InvChild_1 <dbl>,
#> #   InvChild_2_r <dbl>, age <dbl>, gender <dbl>, ecology <chr>,
#> #   duration_in_seconds <dbl>, attention_1 <dbl>, attention_2 <dbl>
williams |> scramble_variables(c("ecology", "age"), .groups = "gender", together = TRUE)
#> # A tibble: 112 × 25
#>    subject   SexUnres_1 SexUnres_2 SexUnres_3 SexUnres_4_r SexUnres_5_r Impuls_1
#>    <chr>          <dbl>      <dbl>      <dbl>        <dbl>        <dbl>    <dbl>
#>  1 A30MP4LX…          5          3          2            3            2        3
#>  2 A16X5FB3…          7          7          7            4            2        6
#>  3 A1E9D1OT…          2          4          6            3            3        3
#>  4 A16FPOYD…          5          4          5            3            3        4
#>  5 A11NOTVH…          5          5          6            3            3        5
#>  6 A3TDR6MX…          5          6          6            3            2        5
#>  7 A3OD4F0S…          5          6          5            3            4        5
#>  8 A123PBQD…          4          6          5            2            3        6
#>  9 A25NGIY5…          6          5          6            3            2        6
#> 10 A11WCFPJ…          4          4          4            1            1        1
#> # ℹ 102 more rows
#> # ℹ 18 more variables: Impuls_2_r <dbl>, Impul_3_r <dbl>, Opport_1 <dbl>,
#> #   Opport_2 <dbl>, Opport_3 <dbl>, Opport_4 <dbl>, Opport_5 <dbl>,
#> #   Opport_6_r <dbl>, InvEdu_1_r <dbl>, InvEdu_2_r <dbl>, InvChild_1 <dbl>,
#> #   InvChild_2_r <dbl>, age <dbl>, gender <dbl>, ecology <chr>,
#> #   duration_in_seconds <dbl>, attention_1 <dbl>, attention_2 <dbl>
…
