Scramble a vector of values — scramble_values • vazul
…
# Scramble the 'ecology' variable in the 'williams' dataset using dplyr
library(dplyr)
#> 
#> Attaching package: 'dplyr'
#> The following objects are masked from 'package:stats':
#> 
#>     filter, lag
#> The following objects are masked from 'package:base':
#> 
#>     intersect, setdiff, setequal, union
data(williams)

williams |>
mutate(ecology = scramble_values(ecology))
#> # A tibble: 112 × 25
#>    subject   SexUnres_1 SexUnres_2 SexUnres_3 SexUnres_4_r SexUnres_5_r Impuls_1
#>    <chr>          <dbl>      <dbl>      <dbl>        <dbl>        <dbl>    <dbl>
#>  1 A30MP4LX…          5          3          2            3            2        3
#>  2 A16X5FB3…          7          7          7            4            2        6
#>  3 A1E9D1OT…          2          4          6            3            3        3
#>  4 A16FPOYD…          5          4          5            3            3        4
#>  5 A11NOTVH…          5          5          6            3            3        5
#>  6 A3TDR6MX…          5          6          6            3            2        5
#>  7 A3OD4F0S…          5          6          5            3            4        5
#>  8 A123PBQD…          4          6          5            2            3        6
#>  9 A25NGIY5…          6          5          6            3            2        6
#> 10 A11WCFPJ…          4          4          4            1            1        1
#> # ℹ 102 more rows
#> # ℹ 18 more variables: Impuls_2_r <dbl>, Impul_3_r <dbl>, Opport_1 <dbl>,
#> #   Opport_2 <dbl>, Opport_3 <dbl>, Opport_4 <dbl>, Opport_5 <dbl>,
#> #   Opport_6_r <dbl>, InvEdu_1_r <dbl>, InvEdu_2_r <dbl>, InvChild_1 <dbl>,
#> #   InvChild_2_r <dbl>, age <dbl>, gender <dbl>, ecology <chr>,
#> #   duration_in_seconds <dbl>, attention_1 <dbl>, attention_2 <dbl>
…
